…
library(MuMIn) # for AICc() function
```

<br>

# 1\. Upload GLNPO Data and Evaluate Usability of Zooplankton Net Mysid Catches

### Setup data

#### Load data and modify as necessary

#### Examine `GLNPO` tibble

    ## # A tibble: 3,965 x 17
    ##    Visit Lake   Year Season Date       Station StationDepth DepthZone ZoopDens
    ##    <chr> <fct> <int> <fct>  <date>     <chr>          <dbl> <fct>        <dbl>
    ##  1 M047~ Mich~  2000 Summer 2000-08-26 MI47             195 Offshore    236.  
    ##  2 M41M~ Mich~  2000 Summer 2000-08-26 MI41M            263 Offshore      4.96
    ##  3 M040~ Mich~  2000 Summer 2000-08-26 MI40             169 Offshore      0   
    ##  4 M032~ Mich~  2000 Summer 2000-08-27 MI32             164 Offshore    111.  
    ##  5 M034~ Mich~  2000 Summer 2000-08-26 MI34             158 Offshore      0   
    ##  6 M27M~ Mich~  2000 Summer 2000-08-27 MI27M            105 Offshore      4.99
    ##  7 M023~ Mich~  2000 Summer 2000-08-27 MI23              91 Offshore      0   
    ##  8 M019~ Mich~  2000 Summer 2000-08-27 MI19              91 Offshore      7   
    ##  9 M18M~ Mich~  2000 Summer 2000-08-27 MI18M            160 Offshore    326.  
    ## 10 M017~ Mich~  2000 Summer 2000-08-28 MI17             100 Offshore     65.4 
    ## # ... with 3,955 more rows, and 8 more variables: MysDens <dbl>,
    ## #   ZoopBiom <dbl>, MysBiom <dbl>, ZoopDN <fct>, MysDN <fct>,
    ## #   ZoopTimeEDT <dttm>, MysTimeEDT <dttm>, Regress <lgl>
…
GLNPO_Mysid_Nets =
  GLNPO_Mysid_Nets %>% 
  modify_at("TimeEDT", function(time) {paste(GLNPO_Mysid_Nets$Date, time, sep = " ")}) %>%
  modify_at("TimeEDT", function(time) {strptime(time, format = "%Y-%m-%d %H:%M", tz = "EST5EDT")})
```

#### Examine `GLNPO_Mysid_Nets` tibble

    ## # A tibble: 538 x 12
    ##    Visit Lake   Year Date       Season Station StationDepth DepthZone  Dens
    ##    <chr> <fct> <int> <date>     <fct>  <chr>          <dbl> <fct>     <dbl>
    ##  1 06GB~ Huron  2006 2006-08-06 Summer HU54_H~         80   Offshore  71.3 
    ##  2 E009~ Erie   2019 2019-04-23 Spring ER09            50   Mid-depth  0   
    ##  3 E009~ Erie   2008 2008-08-11 Summer ER09            48.6 Mid-depth  3.5 
    ##  4 E009~ Erie   2009 2009-08-19 Summer ER09            48.6 Mid-depth  0   
    ##  5 E009~ Erie   2010 2010-08-11 Summer ER09            48.6 Mid-depth  0   
    ##  6 E009~ Erie   2015 2015-08-13 Summer ER09            46   Mid-depth 10.8 
    ##  7 E009~ Erie   2018 2018-08-13 Summer ER09            49   Mid-depth 18.5 
    ##  8 E009~ Erie   2019 2019-08-11 Summer ER09            56   Mid-depth 24.2 
    ##  9 E009~ Erie   2014 2014-04-25 Spring ER09            49.1 Mid-depth  0   
    ## 10 E009~ Erie   2018 2018-04-09 Spring ER09            50   Mid-depth  2.55
    ## # ... with 528 more rows, and 3 more variables: Biom <dbl>, DN <fct>,
    ## #   TimeEDT <dttm>
…
#### Examine `NOAA` tibble

    ## # A tibble: 223 x 13
    ## # Groups:   Visit, Year, Date [223]
    ##    Visit Lake   Year Date       Month Season Station StationDepth DepthZone
    ##    <chr> <fct> <int> <date>     <fct> <fct>  <chr>          <dbl> <fct>    
    ##  1 2007~ Mich~  2007 2007-03-20 March Winter M110             110 Offshore 
    ##  2 2007~ Mich~  2007 2007-04-09 April Spring M110             110 Offshore 
    ##  3 2007~ Mich~  2007 2007-04-09 April Spring M45               45 Mid-depth
    ##  4 2007~ Mich~  2007 2007-05-10 May   Spring M110             110 Offshore 
    ##  5 2007~ Mich~  2007 2007-05-10 May   Spring M45               45 Mid-depth
    ##  6 2007~ Mich~  2007 2007-06-25 June  Spring M110             110 Offshore 
    ##  7 2007~ Mich~  2007 2007-06-25 June  Spring M45               45 Mid-depth
    ##  8 2007~ Mich~  2007 2007-07-29 July  Summer M110             110 Offshore 
    ##  9 2007~ Mich~  2007 2007-07-29 July  Summer M45               45 Mid-depth
    ## 10 2007~ Mich~  2007 2007-08-13 Augu~ Summer M110             110 Offshore 
    ## # ... with 213 more rows, and 4 more variables: Dens <dbl>, Biom <dbl>,
    ## #   DN <fct>, TimeEDT <lgl>
…
rm(USGS_MI_HU_0, USGS_MI_HU2, USGS_MI_HU3)

str(USGS)
```

#### Examine `USGS` tibble

    ## # A tibble: 414 x 19
    ##    Visit_OP  YEAR Lake  VESSEL Date       Time                Month   Lat   Lon
    ##       <dbl> <int> <chr>  <int> <date>     <dttm>              <int> <dbl> <dbl>
    ##  1    58034  2005 Mich~     88 2005-08-18 2005-08-18 22:00:00     8  46.0 -85.3
    ##  2   116072  2005 Mich~     88 2005-08-19 2005-08-19 22:00:00     8  45.8 -86.0
    ##  3   174112  2005 Mich~     88 2005-08-19 2005-08-19 23:42:00     8  45.8 -86.2
    ##  4   232156  2005 Mich~     88 2005-08-20 2005-08-20 22:42:00     8  45.4 -86.6
    ##  5   290201  2005 Mich~     88 2005-08-21 2005-08-21 23:55:00     8  45.4 -86.5
    ##  6   348249  2005 Mich~     88 2005-08-22 2005-08-22 22:58:00     8  45.2 -86.5
    ##  7   406307  2005 Mich~     88 2005-08-24 2005-08-24 22:17:00     8  44.6 -87.1
    ##  8   464370  2005 Mich~     88 2005-08-25 2005-08-25 04:33:00     8  44.2 -87.4
    ##  9   522435  2005 Mich~     88 2005-08-25 2005-08-25 21:35:00     8  44.0 -87.1
    ## 10   580503  2005 Mich~     88 2005-08-26 2005-08-26 02:18:00     8  44.0 -86.7
    ## # ... with 404 more rows, and 10 more variables: StationDepth <dbl>,
    ## #   Dens <dbl>, Av_Mass <dbl>, N_Col <int>, N_Meas <int>, Season <chr>,
    ## #   DN <chr>, Station <lgl>, Biom <dbl>, DepthZone <fct>
…
#### Examine `DFO_NOAA` tibble

    ## # A tibble: 166 x 13
    ##    Visit Lake   Year Date       Month Season Station StationDepth DepthZone
    ##    <lgl> <chr> <dbl> <date>     <chr> <chr>  <chr>          <dbl> <chr>    
    ##  1 NA    Mich~  2000 2000-08-15 Aug   Summer <NA>              45 MidDepth 
    ##  2 NA    Mich~  2000 2000-08-15 Aug   Summer <NA>              45 MidDepth 
    ##  3 NA    Mich~  2000 2000-08-15 Aug   Summer <NA>              45 MidDepth 
    ##  4 NA    Mich~  2000 2000-08-15 Aug   Summer <NA>              75 Offshore 
    ##  5 NA    Mich~  2000 2000-08-15 Aug   Summer <NA>              75 Offshore 
    ##  6 NA    Mich~  2000 2000-08-15 Aug   Summer <NA>              75 Offshore 
    ##  7 NA    Mich~  2000 2000-06-15 Jun   Spring <NA>              45 MidDepth 
    ##  8 NA    Mich~  2000 2000-06-15 Jun   Spring <NA>              45 MidDepth 
    ##  9 NA    Mich~  2000 2000-06-15 Jun   Spring <NA>              45 MidDepth 
    ## 10 NA    Mich~  2000 2000-06-15 Jun   Spring <NA>              75 Offshore 
    ## # ... with 156 more rows, and 4 more variables: Dens <dbl>, Biom <lgl>,
    ## #   DN <chr>, TimeEDT <lgl>
…
Mysids$Season = factor(as.character(Mysids$Season), levels = c("Spring", "Summer", "Late Summer", "Fall"))

Mysids$Period = factor(as.character(Mysids$Period), levels = c("1995-2005", "1997-2005", "2006-2016", "2017-2019"), ordered = T)
```

#### Examine `Mysids` tibble

    ## # A tibble: 1,706 x 14
    ##    Visit Lake   Year Season Date       Station StationDepth DepthZone  Dens
    ##    <chr> <fct> <dbl> <fct>  <date>     <chr>          <dbl> <chr>     <dbl>
    ##  1 M047~ Mich~  2000 Summer 2000-08-26 MI47             195 Offshore  236. 
    ##  2 M032~ Mich~  2000 Summer 2000-08-27 MI32             164 Offshore  111. 
    ##  3 M18M~ Mich~  2000 Summer 2000-08-27 MI18M            160 Offshore  326. 
    ##  4 M017~ Mich~  2000 Summer 2000-08-28 MI17             100 Offshore   65.4
    ##  5 H45M~ Huron  2000 Summer 2000-08-14 HU45M             95 Offshore  147. 
    ##  6 H038~ Huron  2000 Summer 2000-08-13 HU38             137 Offshore  101. 
    ##  7 H037~ Huron  2000 Summer 2000-08-13 HU37              74 Offshore   60.1
    ##  8 H45M~ Huron  2000 Summer 2000-08-14 HU45M             95 Offshore  153. 
    ##  9 H45M~ Huron  2000 Summer 2000-08-14 HU45M             95 Offshore  169. 
    ## 10 H053~ Huron  2000 Summer 2000-08-15 HU53              91 Offshore   10.9
    ## # ... with 1,696 more rows, and 5 more variables: Biom <dbl>, DN <chr>,
    ## #   TimeEDT <dttm>, Group <fct>, Period <ord>
…
