…
Therefore, a seperate mysid-net-tow specific tibble is needed to
represent that dataset.

### Load NOAA GLERL Muskegon Mysid Data

### Load USGS GLSC Mysid Net Data From Annual Acoustic Surveys in Lakes Michigan and Huron

### Upload DFO data into tibble

## Compile data sources into single tibble

### Examine `Mysids` tibble

    ## # A tibble: 2,010 x 16
    ## # Groups:   Visit, Lake, Year, Season [1,653]
    ##    Visit Lake   Year Season Station Date       StationDepth DepthZone   Dens
    ##    <chr> <fct> <dbl> <fct>  <chr>   <date>            <dbl> <fct>      <dbl>
    ##  1 E009~ Erie   2000 Spring ER09    2000-04-16           49 Mid-depth NaN   
    ##  2 E009~ Erie   2000 Summer ER09    2000-08-04           30 Mid-depth   0   
    ##  3 E009~ Erie   2001 Summer ER09    2001-08-05           51 Mid-depth  15.2 
    ##  4 E009~ Erie   2002 Summer ER09    2002-08-08           48 Mid-depth   0   
    ##  5 E009~ Erie   2008 Summer ER09    2008-08-11           49 Mid-depth   6.79
    ##  6 E009~ Erie   2009 Summer ER09    2009-08-19           49 Mid-depth   0   
    ##  7 E009~ Erie   2010 Summer ER09    2010-08-11           49 Mid-depth   0   
    ##  8 E009~ Erie   2014 Summer ER09    2014-08-15           49 Mid-depth   0   
    ##  9 E009~ Erie   2015 Summer ER09    2015-08-13           49 Mid-depth  10.1 
    ## 10 E009~ Erie   2018 Summer ER09    2018-08-13           49 Mid-depth  19.0 
    ## # ... with 2,000 more rows, and 7 more variables: Biom <dbl>, DN <chr>,
    ## #   TimeEDT <dttm>, Group <fct>, Period <chr>, Period_Name <fct>,
    ## #   Period_Numeric <dbl>
…
